6.Registers/reg_file.vcd
$date
	Sun Mar  8 14:47:25 2020
$end
$version
	Icarus Verilog
$end
$timescale
	1s
$end
$scope module tb_regfileNxR $end
$var wire 8 ! data_out [7:0] $end
$var reg 1 " clk $end
$var reg 8 # data_in [7:0] $end
$var reg 5 $ reg_id_r [4:0] $end
$var reg 5 % reg_id_w [4:0] $end
$var reg 1 & rst $end
$var reg 1 ' wr $end
$var integer 32 ( i [31:0] $end
$scope module regfile32x8 $end
$var wire 1 " clk $end
$var wire 8 ) data_in [7:0] $end
$var wire 5 * reg_id_r [4:0] $end
$var wire 5 + reg_id_w [4:0] $end
$var wire 1 & rst $end
$var wire 1 ' wr $end
$var reg 8 , data_out [7:0] $end
$var integer 32 - i [31:0] $end
$upscope $end
$upscope $end
$enddefinitions $end
#2
$dumpvars
b100000 -
bx ,
bx +
bx *
bx )
b0 (
x'
0&
bx %
bx $
bx #
0"
bx !
$end
#5
1'
b0 %
b0 +
b100100 #
b100100 )
#10
1"
#15
0'
#20
0"
#25
1'
b1 %
b1 +
b10000001 #
b10000001 )
b1 (
#30
1"
#35
0'
#40
0"
#45
1'
b10 %
b10 +
b1001 #
b1001 )
b10 (
#50
1"
#55
0'
#60
0"
#65
1'
b11 %
b11 +
b1100011 #
b1100011 )
b11 (
#70
1"
#75
0'
#80
0"
#85
1'
b100 %
b100 +
b1101 #
b1101 )
b100 (
#90
1"
#95
0'
#100
0"
#105
1'
b101 %
b101 +
b10001101 #
b10001101 )
b101 (
#110
1"
#115
0'
#120
0"
#125
1'
b110 %
b110 +
b1100101 #
b1100101 )
b110 (
#130
1"
#135
0'
#140
0"
#145
1'
b111 %
b111 +
b10010 #
b10010 )
b111 (
#150
1"
#155
0'
#160
0"
#165
1'
b1000 %
b1000 +
b1 #
b1 )
b1000 (
#170
1"
#175
0'
#180
0"
#185
1'
b1001 %
b1001 +
b1101 #
b1101 )
b1001 (
#190
1"
#195
0'
#200
0"
#205
1'
b1010 %
b1010 +
b1110110 #
b1110110 )
b1010 (
#210
1"
#215
0'
#220
0"
#225
1'
b1011 %
b1011 +
b111101 #
b111101 )
b1011 (
#230
1"
#235
0'
#240
0"
#245
1'
b1100 %
b1100 +
b11101101 #
b11101101 )
b1100 (
#250
1"
#255
0'
#260
0"
#265
1'
b1101 %
b1101 +
b10001100 #
b10001100 )
b1101 (
#270
1"
#275
0'
#280
0"
#285
1'
b1110 %
b1110 +
b11111001 #
b11111001 )
b1110 (
#290
1"
#295
0'
#300
0"
#305
1'
b1111 %
b1111 +
b11000110 #
b11000110 )
b1111 (
#310
1"
#315
0'
#320
0"
#325
1'
b10000 %
b10000 +
b11000101 #
b11000101 )
b10000 (
#330
1"
#335
0'
#340
0"
#345
1'
b10001 %
b10001 +
b10101010 #
b10101010 )
b10001 (
#350
1"
#355
0'
#360
0"
#365
1'
b10010 %
b10010 +
b11100101 #
b11100101 )
b10010 (
#370
1"
#375
0'
#380
0"
#385
1'
b10011 %
b10011 +
b1110111 #
b1110111 )
b10011 (
#390
1"
#395
0'
#400
0"
#405
1'
b10100 %
b10100 +
b10010 #
b10010 )
b10100 (
#410
1"
#415
0'
#420
0"
#425
1'
b10101 %
b10101 +
b10001111 #
b10001111 )
b10101 (
#430
1"
#435
0'
#440
0"
#445
1'
b10110 %
b10110 +
b11110010 #
b11110010 )
b10110 (
#450
1"
#455
0'
#460
0"
#465
1'
b10111 %
b10111 +
b11001110 #
b11001110 )
b10111 (
#470
1"
#475
0'
#480
0"
#485
1'
b11000 %
b11000 +
b11101000 #
b11101000 )
b11000 (
#490
1"
#495
0'
#500
0"
#505
1'
b11001 %
b11001 +
b11000101 #
b11000101 )
b11001 (
#510
1"
#515
0'
#520
0"
#525
1'
b11010 %
b11010 +
b1011100 #
b1011100 )
b11010 (
#530
1"
#535
0'
#540
0"
#545
1'
b11011 %
b11011 +
b10111101 #
b10111101 )
b11011 (
#550
1"
#555
0'
#560
0"
#565
1'
b11100 %
b11100 +
b101101 #
b101101 )
b11100 (
#570
1"
#575
0'
#580
0"
#585
1'
b11101 %
b11101 +
b1100101 #
b1100101 )
b11101 (
#590
1"
#595
0'
#600
0"
#605
1'
b11110 %
b11110 +
b1100011 #
b1100011 )
b11110 (
#610
1"
#615
0'
#620
0"
#625
1'
b11111 %
b11111 +
b1010 #
b1010 )
b11111 (
#630
1"
#635
0'
#640
0"
#645
b100000 (
#650
1"
#660
0"
#670
1"
#680
0"
#690
1"
#700
0"
#705
b0 $
b0 *
#710
b100100 !
b100100 ,
1"
#720
0"
#730
1"
#740
0"
#745
b1010 $
b1010 *
#750
b1110110 !
b1110110 ,
1"
#760
0"
#765
b11101 $
b11101 *
#770
b1100101 !
b1100101 ,
1"
#780
0"
#785
b10110 $
b10110 *
#790
b11110010 !
b11110010 ,
1"
#800
0"
#805
b10011 $
b10011 *
#810
b1110111 !
b1110111 ,
1"
#820
0"
#825
b1101 $
b1101 *
#830
b10001100 !
b10001100 ,
1"
#840
0"
#845
b10011 $
b10011 *
#850
b1110111 !
b1110111 ,
1"
#860
0"
#865
b1011 $
b1011 *
#870
b111101 !
b111101 ,
1"
#880
0"
#885
b10101 $
b10101 *
#890
b10001111 !
b10001111 ,
1"
#900
0"
#905
b10 $
b10 *
#910
b1001 !
b1001 ,
1"
#920
0"
#925
b1110 $
b1110 *
#930
b11111001 !
b11111001 ,
1"
#940
0"
#945
b11101 $
b11101 *
#950
b1100101 !
b1100101 ,
1"
#960
0"
#965
b1111 $
b1111 *
#970
b11000110 !
b11000110 ,
1"
#980
0"
#985
b11 $
b11 *
#990
b1100011 !
b1100011 ,
1"
#1000
0"
#1005
b1010 $
b1010 *
#1010
b1110110 !
b1110110 ,
1"
#1020
0"
#1030
1"
#1040
0"
#1045
b11100 $
b11100 *
#1050
b101101 !
b101101 ,
1"
#1060
0"
#1065
b10010 $
b10010 *
#1070
b11100101 !
b11100101 ,
1"
#1080
0"
#1085
b1010 $
b1010 *
#1090
b1110110 !
b1110110 ,
1"
