2.FA/TB_RCA_4b.vcd
$date
	Sun Jan 19 18:37:29 2020
$end
$version
	Icarus Verilog
$end
$timescale
	1s
$end
$scope module TB_RCA_4b $end
$var wire 1 ! carry_out $end
$var wire 4 " Sum [3:0] $end
$var reg 4 # A [3:0] $end
$var reg 4 $ B [3:0] $end
$var reg 1 % carry_in $end
$scope module rca_4b_dut $end
$var wire 4 & A [3:0] $end
$var wire 4 ' B [3:0] $end
$var wire 1 % carry_in $end
$var wire 1 ( w2_3 $end
$var wire 1 ) w1_2 $end
$var wire 1 * w0_1 $end
$var wire 1 ! carry_out $end
$var wire 4 + Sum [3:0] $end
$scope module fa0 $end
$var wire 1 , a $end
$var wire 1 - b $end
$var wire 1 % carry_in $end
$var wire 1 * carry_out $end
$var wire 1 . sum $end
$upscope $end
$scope module fa1 $end
$var wire 1 / a $end
$var wire 1 0 b $end
$var wire 1 * carry_in $end
$var wire 1 ) carry_out $end
$var wire 1 1 sum $end
$upscope $end
$scope module fa2 $end
$var wire 1 2 a $end
$var wire 1 3 b $end
$var wire 1 ) carry_in $end
$var wire 1 ( carry_out $end
$var wire 1 4 sum $end
$upscope $end
$scope module fa3 $end
$var wire 1 5 a $end
$var wire 1 6 b $end
$var wire 1 ( carry_in $end
$var wire 1 ! carry_out $end
$var wire 1 7 sum $end
$upscope $end
$upscope $end
$upscope $end
$enddefinitions $end
#0
$dumpvars
x7
x6
x5
x4
x3
x2
x1
x0
x/
x.
x-
x,
bx +
x*
x)
x(
bx '
bx &
x%
bx $
bx #
bx "
x!
$end
#5
04
07
01
b0 "
b0 +
0.
0)
0(
0!
0*
0-
00
03
06
0,
0/
02
05
0%
b0 $
b0 '
b0 #
b0 &
#10
b1 "
b1 +
1.
1%
#15
1-
0%
b1 $
b1 '
#20
11
b10 "
b10 +
0.
1*
1%
#25
04
b10 "
b10 +
11
0)
0*
0-
10
0%
b10 $
b10 '
#30
b11 "
b11 +
1.
1%
#35
1-
0%
b11 $
b11 '
#40
14
01
1)
b100 "
b100 +
0.
1*
1%
#45
07
b100 "
b100 +
14
0)
0(
0*
0-
00
13
0%
b100 $
b100 '
#50
b101 "
b101 +
1.
1%
#55
1-
0%
b101 $
b101 '
#60
11
b110 "
b110 +
0.
1*
1%
#65
07
14
b110 "
b110 +
11
0(
0)
0*
0-
10
0%
b110 $
b110 '
#70
b111 "
b111 +
1.
1%
#75
1-
0%
b111 $
b111 '
#80
17
04
1(
01
1)
b1000 "
b1000 +
0.
1*
1%
#85
04
b1000 "
b1000 +
17
0)
0(
0!
0*
0-
00
03
16
0%
b1000 $
b1000 '
#90
b1001 "
b1001 +
1.
1%
#95
1-
0%
b1001 $
b1001 '
#100
11
b1010 "
b1010 +
0.
1*
1%
#105
04
b1010 "
b1010 +
11
0)
0*
0-
10
0%
b1010 $
b1010 '
#110
b1011 "
b1011 +
1.
1%
#115
1-
0%
b1011 $
b1011 '
#120
14
01
1)
b1100 "
b1100 +
0.
1*
1%
#125
17
b1100 "
b1100 +
14
0!
0)
0(
0*
0-
00
13
0%
b1100 $
b1100 '
#130
b1101 "
b1101 +
1.
1%
#135
1-
0%
b1101 $
b1101 '
#140
11
b1110 "
b1110 +
0.
1*
1%
#145
17
0!
14
b1110 "
b1110 +
11
0(
0)
0*
0-
10
0%
b1110 $
b1110 '
#150
b1111 "
b1111 +
1.
1%
#155
1-
0%
b1111 $
b1111 '
#160
07
1!
04
1(
01
1)
b0 "
b0 +
0.
1*
1%
#165
04
07
b1 "
b1 +
1.
0)
0(
0!
0*
0-
00
03
06
1,
0%
b0 $
b0 '
b1 #
b1 &
#170
11
b10 "
b10 +
0.
1*
1%
#175
11
b10 "
b10 +
0.
1*
1-
0%
b1 $
b1 '
#180
b11 "
b11 +
1.
1%
#185
04
11
0)
0*
b11 "
b11 +
1.
0-
10
0%
b10 $
b10 '
#190
14
01
1)
b100 "
b100 +
0.
1*
1%
#195
14
01
1)
b100 "
b100 +
0.
1*
1-
0%
b11 $
b11 '
#200
b101 "
b101 +
1.
1%
#205
07
14
0)
0(
0*
b101 "
b101 +
1.
0-
00
13
0%
b100 $
b100 '
#210
11
b110 "
b110 +
0.
1*
1%
#215
11
b110 "
b110 +
0.
1*
1-
0%
b101 $
b101 '
#220
b111 "
b111 +
1.
1%
#225
07
14
11
0(
0)
0*
b111 "
b111 +
1.
0-
10
0%
b110 $
b110 '
#230
17
04
1(
01
1)
b1000 "
b1000 +
0.
1*
1%
#235
17
04
1(
01
1)
b1000 "
b1000 +
0.
1*
1-
0%
b111 $
b111 '
#240
b1001 "
b1001 +
1.
1%
#245
04
17
0)
0(
0!
0*
b1001 "
b1001 +
1.
0-
00
03
16
0%
b1000 $
b1000 '
#250
11
b1010 "
b1010 +
0.
1*
1%
#255
11
b1010 "
b1010 +
0.
1*
1-
0%
b1001 $
b1001 '
#260
b1011 "
b1011 +
1.
1%
#265
04
11
0)
0*
b1011 "
b1011 +
1.
0-
10
0%
b1010 $
b1010 '
#270
14
01
1)
b1100 "
b1100 +
0.
1*
1%
#275
14
01
1)
b1100 "
b1100 +
0.
1*
1-
0%
b1011 $
b1011 '
#280
b1101 "
b1101 +
1.
1%
#285
17
14
0!
0)
0(
0*
b1101 "
b1101 +
1.
0-
00
13
0%
b1100 $
b1100 '
#290
11
b1110 "
b1110 +
0.
1*
1%
#295
11
b1110 "
b1110 +
0.
1*
1-
0%
b1101 $
b1101 '
#300
b1111 "
b1111 +
1.
1%
#305
17
0!
14
11
0(
0)
0*
b1111 "
b1111 +
1.
0-
10
0%
b1110 $
b1110 '
#310
07
1!
04
1(
01
1)
b0 "
b0 +
0.
1*
1%
#315
07
1!
04
1(
01
1)
b0 "
b0 +
0.
1*
1-
0%
b1111 $
b1111 '
#320
b1 "
b1 +
1.
1%
#325
11
04
07
0)
0(
0!
0*
b10 "
b10 +
0.
0-
00
03
06
0,
1/
0%
b0 $
b0 '
b10 #
b10 &
#330
b11 "
b11 +
1.
1%
#335
1-
0%
b1 $
b1 '
#340
14
01
b100 "
b100 +
0.
1)
1*
1%
#345
b100 "
b100 +
01
0*
0-
10
0%
b10 $
b10 '
#350
b101 "
b101 +
1.
1%
#355
1-
0%
b11 $
b11 '
#360
0.
b110 "
b110 +
11
1*
1%
#365
07
14
0)
b110 "
b110 +
11
0(
0*
0-
00
13
0%
b100 $
b100 '
#370
b111 "
b111 +
1.
1%
#375
1-
0%
b101 $
b101 '
#380
17
04
1(
01
b1000 "
b1000 +
0.
1)
1*
1%
#385
b1000 "
b1000 +
01
0*
0-
10
0%
b110 $
b110 '
#390
b1001 "
b1001 +
1.
1%
#395
1-
0%
b111 $
b111 '
#400
0.
b1010 "
b1010 +
11
1*
1%
#405
04
17
0)
b1010 "
b1010 +
11
0(
0!
0*
0-
00
03
16
0%
b1000 $
b1000 '
#410
b1011 "
b1011 +
1.
1%
#415
1-
0%
b1001 $
b1001 '
#420
14
01
b1100 "
b1100 +
0.
1)
1*
1%
#425
b1100 "
b1100 +
01
0*
0-
10
0%
b1010 $
b1010 '
#430
b1101 "
b1101 +
1.
1%
#435
1-
0%
b1011 $
b1011 '
#440
0.
b1110 "
b1110 +
11
1*
1%
#445
17
14
0!
0)
b1110 "
b1110 +
11
0(
0*
0-
00
13
0%
b1100 $
b1100 '
#450
b1111 "
b1111 +
1.
1%
#455
1-
0%
b1101 $
b1101 '
#460
07
1!
04
1(
01
b0 "
b0 +
0.
1)
1*
1%
#465
b0 "
b0 +
01
0*
0-
10
0%
b1110 $
b1110 '
#470
b1 "
b1 +
1.
1%
#475
1-
0%
b1111 $
b1111 '
#480
0.
b10 "
b10 +
11
1*
1%
#485
04
07
1.
0)
b11 "
b11 +
11
0(
0!
0*
0-
00
03
06
1,
0%
b0 $
b0 '
b11 #
b11 &
#490
14
01
b100 "
b100 +
0.
1)
1*
1%
#495
14
01
b100 "
b100 +
0.
1)
1*
1-
0%
b1 $
b1 '
#500
b101 "
b101 +
1.
1%
#505
01
0*
b101 "
b101 +
1.
0-
10
0%
b10 $
b10 '
#510
0.
b110 "
b110 +
11
1*
1%
#515
0.
b110 "
b110 +
11
1*
1-
0%
b11 $
b11 '
#520
b111 "
b111 +
1.
1%
#525
07
14
0)
11
0(
0*
b111 "
b111 +
1.
0-
00
13
0%
b100 $
b100 '
#530
17
04
1(
01
b1000 "
b1000 +
0.
1)
1*
1%
#535
17
04
1(
01
b1000 "
b1000 +
0.
1)
1*
1-
0%
b101 $
b101 '
#540
b1001 "
b1001 +
1.
1%
#545
01
0*
b1001 "
b1001 +
1.
0-
10
0%
b110 $
b110 '
#550
0.
b1010 "
b1010 +
11
1*
1%
#555
0.
b1010 "
b1010 +
11
1*
1-
0%
b111 $
b111 '
#560
b1011 "
b1011 +
1.
1%
#565
04
17
0)
11
0(
0!
0*
b1011 "
b1011 +
1.
0-
00
03
16
0%
b1000 $
b1000 '
#570
14
01
b1100 "
b1100 +
0.
1)
1*
1%
#575
14
01
b1100 "
b1100 +
0.
1)
1*
1-
0%
b1001 $
b1001 '
#580
b1101 "
b1101 +
1.
1%
#585
01
0*
b1101 "
b1101 +
1.
0-
10
0%
b1010 $
b1010 '
#590
0.
b1110 "
b1110 +
11
1*
1%
#595
0.
b1110 "
b1110 +
11
1*
1-
0%
b1011 $
b1011 '
#600
b1111 "
b1111 +
1.
1%
#605
17
14
0!
0)
11
0(
0*
b1111 "
b1111 +
1.
0-
00
13
0%
b1100 $
b1100 '
#610
07
1!
04
1(
01
b0 "
b0 +
0.
1)
1*
1%
#615
07
1!
04
1(
01
b0 "
b0 +
0.
1)
1*
1-
0%
b1101 $
b1101 '
#620
b1 "
b1 +
1.
1%
#625
01
0*
b1 "
b1 +
1.
0-
10
0%
b1110 $
b1110 '
#630
0.
b10 "
b10 +
11
1*
1%
#635
0.
b10 "
b10 +
11
1*
1-
0%
b1111 $
b1111 '
#640
b11 "
b11 +
1.
1%
#645
14
07
0(
0!
01
0)
0*
b100 "
b100 +
0.
0-
00
03
06
0,
0/
12
0%
b0 $
b0 '
b100 #
b100 &
#650
b101 "
b101 +
1.
1%
#655
1-
0%
b1 $
b1 '
#660
11
b110 "
b110 +
0.
1*
1%
#665
07
14
b110 "
b110 +
11
0(
0)
0*
0-
10
0%
b10 $
b10 '
#670
b111 "
b111 +
1.
1%
#675
1-
0%
b11 $
b11 '
#680
17
04
01
1(
1)
b1000 "
b1000 +
0.
1*
1%
#685
0)
b1000 "
b1000 +
04
0*
0-
00
13
0%
b100 $
b100 '
#690
b1001 "
b1001 +
1.
1%
#695
1-
0%
b101 $
b101 '
#700
11
b1010 "
b1010 +
0.
1*
1%
#705
11
b1010 "
b1010 +
04
0)
0*
0-
10
0%
b110 $
b110 '
#710
b1011 "
b1011 +
1.
1%
#715
1-
0%
b111 $
b111 '
#720
01
14
1)
b1100 "
b1100 +
0.
1*
1%
#725
17
0(
0)
b1100 "
b1100 +
14
0!
0*
0-
00
03
16
0%
b1000 $
b1000 '
#730
b1101 "
b1101 +
1.
1%
#735
1-
0%
b1001 $
b1001 '
#740
11
b1110 "
b1110 +
0.
1*
1%
#745
17
0!
14
b1110 "
b1110 +
11
0(
0)
0*
0-
10
0%
b1010 $
b1010 '
#750
b1111 "
b1111 +
1.
1%
#755
1-
0%
b1011 $
b1011 '
#760
07
1!
04
01
1(
1)
b0 "
b0 +
0.
1*
1%
#765
0)
b0 "
b0 +
04
0*
0-
00
13
0%
b1100 $
b1100 '
#770
b1 "
b1 +
1.
1%
#775
1-
0%
b1101 $
b1101 '
#780
11
b10 "
b10 +
0.
1*
1%
#785
11
b10 "
b10 +
04
0)
0*
0-
10
0%
b1110 $
b1110 '
#790
b11 "
b11 +
1.
1%
#795
1-
0%
b1111 $
b1111 '
#800
01
14
1)
b100 "
b100 +
0.
1*
1%
#805
07
1.
0(
0)
b101 "
b101 +
14
0!
0*
0-
00
03
06
1,
0%
b0 $
b0 '
b101 #
b101 &
#810
11
b110 "
b110 +
0.
1*
1%
#815
11
b110 "
b110 +
0.
1*
1-
0%
b1 $
b1 '
#820
b111 "
b111 +
1.
1%
#825
07
14
11
0(
0)
0*
b111 "
b111 +
1.
0-
10
0%
b10 $
b10 '
#830
17
04
01
1(
1)
b1000 "
b1000 +
0.
1*
1%
#835
17
04
01
1(
1)
b1000 "
b1000 +
0.
1*
1-
0%
b11 $
b11 '
#840
b1001 "
b1001 +
1.
1%
#845
0)
04
0*
b1001 "
b1001 +
1.
0-
00
13
0%
b100 $
b100 '
#850
11
b1010 "
b1010 +
0.
1*
1%
#855
11
b1010 "
b1010 +
0.
1*
1-
0%
b101 $
b101 '
#860
b1011 "
b1011 +
1.
1%
#865
11
04
0)
0*
b1011 "
b1011 +
1.
0-
10
0%
b110 $
b110 '
#870
01
14
1)
b1100 "
b1100 +
0.
1*
1%
#875
01
14
1)
b1100 "
b1100 +
0.
1*
1-
0%
b111 $
b111 '
#880
b1101 "
b1101 +
1.
1%
#885
17
0(
0)
14
0!
0*
b1101 "
b1101 +
1.
0-
00
03
16
0%
b1000 $
b1000 '
#890
11
b1110 "
b1110 +
0.
1*
1%
#895
11
b1110 "
b1110 +
0.
1*
1-
0%
b1001 $
b1001 '
#900
b1111 "
b1111 +
1.
1%
#905
17
0!
14
11
0(
0)
0*
b1111 "
b1111 +
1.
0-
10
0%
b1010 $
b1010 '
#910
07
1!
04
01
1(
1)
b0 "
b0 +
0.
1*
1%
#915
07
1!
04
01
1(
1)
b0 "
b0 +
0.
1*
1-
0%
b1011 $
b1011 '
#920
b1 "
b1 +
1.
1%
#925
0)
04
0*
b1 "
b1 +
1.
0-
00
13
0%
b1100 $
b1100 '
#930
11
b10 "
b10 +
0.
1*
1%
#935
11
b10 "
b10 +
0.
1*
1-
0%
b1101 $
b1101 '
#940
b11 "
b11 +
1.
1%
#945
11
04
0)
0*
b11 "
b11 +
1.
0-
10
0%
b1110 $
b1110 '
#950
01
14
1)
b100 "
b100 +
0.
1*
1%
#955
01
14
1)
b100 "
b100 +
0.
1*
1-
0%
b1111 $
b1111 '
#960
b101 "
b101 +
1.
1%
#965
11
0(
07
0)
14
0!
0*
b110 "
b110 +
0.
0-
00
03
06
0,
1/
0%
b0 $
b0 '
b110 #
b110 &
#970
b111 "
b111 +
1.
1%
#975
1-
0%
b1 $
b1 '
#980
17
04
01
1(
b1000 "
b1000 +
0.
1)
1*
1%
#985
b1000 "
b1000 +
01
0*
0-
10
0%
b10 $
b10 '
#990
b1001 "
b1001 +
1.
1%
#995
1-
0%
b11 $
b11 '
#1000
0.
b1010 "
b1010 +
11
1*
1%
#1005
0)
11
b1010 "
b1010 +
04
0*
0-
00
13
0%
b100 $
b100 '
#1010
b1011 "
b1011 +
1.
1%
#1015
1-
0%
b101 $
b101 '
#1020
01
14
b1100 "
b1100 +
0.
1)
1*
1%
#1025
b1100 "
b1100 +
01
0*
0-
10
0%
b110 $
b110 '
#1030
b1101 "
b1101 +
1.
1%
#1035
1-
0%
b111 $
b111 '
#1040
0.
b1110 "
b1110 +
11
1*
1%
#1045
0(
17
0)
11
b1110 "
b1110 +
14
0!
0*
0-
00
03
16
0%
b1000 $
b1000 '
#1050
b1111 "
b1111 +
1.
1%
#1055
1-
0%
b1001 $
b1001 '
#1060
07
1!
04
01
1(
b0 "
b0 +
0.
1)
1*
1%
#1065
b0 "
b0 +
01
0*
0-
10
0%
b1010 $
b1010 '
#1070
b1 "
b1 +
1.
1%
#1075
1-
0%
b1011 $
b1011 '
#1080
0.
b10 "
b10 +
11
1*
1%
#1085
0)
11
b10 "
b10 +
04
0*
0-
00
13
0%
b1100 $
b1100 '
#1090
b11 "
b11 +
1.
1%
#1095
1-
0%
b1101 $
b1101 '
#1100
01
14
b100 "
b100 +
0.
1)
1*
1%
#1105
b100 "
b100 +
01
0*
0-
10
0%
b1110 $
b1110 '
#1110
b101 "
b101 +
1.
1%
#1115
1-
0%
b1111 $
b1111 '
#1120
0.
b110 "
b110 +
11
1*
1%
#1125
0(
07
1.
0)
11
b111 "
b111 +
14
0!
0*
0-
00
03
06
1,
0%
b0 $
b0 '
b111 #
b111 &
#1130
17
04
01
1(
b1000 "
b1000 +
0.
1)
1*
1%
#1135
17
04
01
1(
b1000 "
b1000 +
0.
1)
1*
1-
0%
b1 $
b1 '
#1140
b1001 "
b1001 +
1.
1%
#1145
01
0*
b1001 "
b1001 +
1.
0-
10
0%
b10 $
b10 '
#1150
0.
b1010 "
b1010 +
11
1*
1%
#1155
0.
b1010 "
b1010 +
11
1*
1-
0%
b11 $
b11 '
#1160
b1011 "
b1011 +
1.
1%
#1165
0)
11
04
0*
b1011 "
b1011 +
1.
0-
00
13
0%
b100 $
b100 '
#1170
01
14
b1100 "
b1100 +
0.
1)
1*
1%
#1175
01
14
b1100 "
b1100 +
0.
1)
1*
1-
0%
b101 $
b101 '
#1180
b1101 "
b1101 +
1.
1%
#1185
01
0*
b1101 "
b1101 +
1.
0-
10
0%
b110 $
b110 '
#1190
0.
b1110 "
b1110 +
11
1*
1%
#1195
0.
b1110 "
b1110 +
11
1*
1-
0%
b111 $
b111 '
#1200
b1111 "
b1111 +
1.
1%
#1205
0(
17
0)
11
14
0!
0*
b1111 "
b1111 +
1.
0-
00
03
16
0%
b1000 $
b1000 '
#1210
07
1!
04
01
1(
b0 "
b0 +
0.
1)
1*
1%
#1215
07
1!
04
01
1(
b0 "
b0 +
0.
1)
1*
1-
0%
b1001 $
b1001 '
#1220
b1 "
b1 +
1.
1%
#1225
01
0*
b1 "
b1 +
1.
0-
10
0%
b1010 $
b1010 '
#1230
0.
b10 "
b10 +
11
1*
1%
#1235
0.
b10 "
b10 +
11
1*
1-
0%
b1011 $
b1011 '
#1240
b11 "
b11 +
1.
1%
#1245
0)
11
04
0*
b11 "
b11 +
1.
0-
00
13
0%
b1100 $
b1100 '
#1250
01
14
b100 "
b100 +
0.
1)
1*
1%
#1255
01
14
b100 "
b100 +
0.
1)
1*
1-
0%
b1101 $
b1101 '
#1260
b101 "
b101 +
1.
1%
#1265
01
0*
b101 "
b101 +
1.
0-
10
0%
b1110 $
b1110 '
#1270
0.
b110 "
b110 +
11
1*
1%
#1275
0.
b110 "
b110 +
11
1*
1-
0%
b1111 $
b1111 '
#1280
b111 "
b111 +
1.
1%
#1285
17
0!
01
0)
04
0(
0*
b1000 "
b1000 +
0.
0-
00
03
06
0,
0/
02
15
0%
b0 $
b0 '
b1000 #
b1000 &
#1290
b1001 "
b1001 +
1.
1%
#1295
1-
0%
b1 $
b1 '
#1300
11
b1010 "
b1010 +
0.
1*
1%
#1305
04
b1010 "
b1010 +
11
0)
0*
0-
10
0%
b10 $
b10 '
#1310
b1011 "
b1011 +
1.
1%
#1315
1-
0%
b11 $
b11 '
#1320
14
01
1)
b1100 "
b1100 +
0.
1*
1%
#1325
17
b1100 "
b1100 +
14
0!
0)
0(
0*
0-
00
13
0%
b100 $
b100 '
#1330
b1101 "
b1101 +
1.
1%
#1335
1-
0%
b101 $
b101 '
#1340
11
b1110 "
b1110 +
0.
1*
1%
#1345
17
14
0!
b1110 "
b1110 +
11
0(
0)
0*
0-
10
0%
b110 $
b110 '
#1350
b1111 "
b1111 +
1.
1%
#1355
1-
0%
b111 $
b111 '
#1360
07
04
1!
1(
01
1)
b0 "
b0 +
0.
1*
1%
#1365
04
0)
0(
b0 "
b0 +
07
0*
0-
00
03
16
0%
b1000 $
b1000 '
#1370
b1 "
b1 +
1.
1%
#1375
1-
0%
b1001 $
b1001 '
#1380
11
b10 "
b10 +
0.
1*
1%
#1385
04
b10 "
b10 +
11
0)
0*
0-
10
0%
b1010 $
b1010 '
#1390
b11 "
b11 +
1.
1%
#1395
1-
0%
b1011 $
b1011 '
#1400
14
01
1)
b100 "
b100 +
0.
1*
1%
#1405
14
b100 "
b100 +
07
0)
0(
0*
0-
00
13
0%
b1100 $
b1100 '
#1410
b101 "
b101 +
1.
1%
#1415
1-
0%
b1101 $
b1101 '
#1420
11
b110 "
b110 +
0.
1*
1%
#1425
14
07
b110 "
b110 +
11
0(
0)
0*
0-
10
0%
b1110 $
b1110 '
#1430
b111 "
b111 +
1.
1%
#1435
1-
0%
b1111 $
b1111 '
#1440
04
17
1(
01
1)
b1000 "
b1000 +
0.
1*
1%
#1445
04
1.
0!
0)
0(
b1001 "
b1001 +
17
0*
0-
00
03
06
1,
0%
b0 $
b0 '
b1001 #
b1001 &
#1450
11
b1010 "
b1010 +
0.
1*
1%
#1455
11
b1010 "
b1010 +
0.
1*
1-
0%
b1 $
b1 '
#1460
b1011 "
b1011 +
1.
1%
#1465
04
11
0)
0*
b1011 "
b1011 +
1.
0-
10
0%
b10 $
b10 '
#1470
14
01
1)
b1100 "
b1100 +
0.
1*
1%
#1475
14
01
1)
b1100 "
b1100 +
0.
1*
1-
0%
b11 $
b11 '
#1480
b1101 "
b1101 +
1.
1%
#1485
17
14
0!
0)
0(
0*
b1101 "
b1101 +
1.
0-
00
13
0%
b100 $
b100 '
#1490
11
b1110 "
b1110 +
0.
1*
1%
#1495
11
b1110 "
b1110 +
0.
1*
1-
0%
b101 $
b101 '
#1500
b1111 "
b1111 +
1.
1%
#1505
17
14
0!
11
0(
0)
0*
b1111 "
b1111 +
1.
0-
10
0%
b110 $
b110 '
#1510
07
04
1!
1(
01
1)
b0 "
b0 +
0.
1*
1%
#1515
07
04
1!
1(
01
1)
b0 "
b0 +
0.
1*
1-
0%
b111 $
b111 '
#1520
b1 "
b1 +
1.
1%
#1525
04
0)
0(
07
0*
b1 "
b1 +
1.
0-
00
03
16
0%
b1000 $
b1000 '
#1530
11
b10 "
b10 +
0.
1*
1%
#1535
11
b10 "
b10 +
0.
1*
1-
0%
b1001 $
b1001 '
#1540
b11 "
b11 +
1.
1%
#1545
04
11
0)
0*
b11 "
b11 +
1.
0-
10
0%
b1010 $
b1010 '
#1550
14
01
1)
b100 "
b100 +
0.
1*
1%
#1555
14
01
1)
b100 "
b100 +
0.
1*
1-
0%
b1011 $
b1011 '
#1560
b101 "
b101 +
1.
1%
#1565
14
07
0)
0(
0*
b101 "
b101 +
1.
0-
00
13
0%
b1100 $
b1100 '
#1570
11
b110 "
b110 +
0.
1*
1%
#1575
11
b110 "
b110 +
0.
1*
1-
0%
b1101 $
b1101 '
#1580
b111 "
b111 +
1.
1%
#1585
14
07
11
0(
0)
0*
b111 "
b111 +
1.
0-
10
0%
b1110 $
b1110 '
#1590
04
17
1(
01
1)
b1000 "
b1000 +
0.
1*
1%
#1595
04
17
1(
01
1)
b1000 "
b1000 +
0.
1*
1-
0%
b1111 $
b1111 '
#1600
b1001 "
b1001 +
1.
1%
#1605
11
04
0!
0)
0(
17
0*
b1010 "
b1010 +
0.
0-
00
03
06
0,
1/
0%
b0 $
b0 '
b1010 #
b1010 &
#1610
b1011 "
b1011 +
1.
1%
#1615
1-
0%
b1 $
b1 '
#1620
14
01
b1100 "
b1100 +
0.
1)
1*
1%
#1625
b1100 "
b1100 +
01
0*
0-
10
0%
b10 $
b10 '
#1630
b1101 "
b1101 +
1.
1%
#1635
1-
0%
b11 $
b11 '
#1640
0.
b1110 "
b1110 +
11
1*
1%
#1645
17
14
0!
0)
b1110 "
b1110 +
11
0(
0*
0-
00
13
0%
b100 $
b100 '
#1650
b1111 "
b1111 +
1.
1%
#1655
1-
0%
b101 $
b101 '
#1660
07
04
1!
1(
01
b0 "
b0 +
0.
1)
1*
1%
#1665
b0 "
b0 +
01
0*
0-
10
0%
b110 $
b110 '
#1670
b1 "
b1 +
1.
1%
#1675
1-
0%
b111 $
b111 '
#1680
0.
b10 "
b10 +
11
1*
1%
#1685
04
0)
11
0(
b10 "
b10 +
07
0*
0-
00
03
16
0%
b1000 $
b1000 '
#1690
b11 "
b11 +
1.
1%
#1695
1-
0%
b1001 $
b1001 '
#1700
14
01
b100 "
b100 +
0.
1)
1*
1%
#1705
b100 "
b100 +
01
0*
0-
10
0%
b1010 $
b1010 '
#1710
b101 "
b101 +
1.
1%
#1715
1-
0%
b1011 $
b1011 '
#1720
0.
b110 "
b110 +
11
1*
1%
#1725
14
07
0)
b110 "
b110 +
11
0(
0*
0-
00
13
0%
b1100 $
b1100 '
#1730
b111 "
b111 +
1.
1%
#1735
1-
0%
b1101 $
b1101 '
#1740
04
17
1(
01
b1000 "
b1000 +
0.
1)
1*
1%
#1745
b1000 "
b1000 +
01
0*
0-
10
0%
b1110 $
b1110 '
#1750
b1001 "
b1001 +
1.
1%
#1755
1-
0%
b1111 $
b1111 '
#1760
0.
b1010 "
b1010 +
11
1*
1%
#1765
04
1.
0!
0)
11
0(
b1011 "
b1011 +
17
0*
0-
00
03
06
1,
0%
b0 $
b0 '
b1011 #
b1011 &
#1770
14
01
b1100 "
b1100 +
0.
1)
1*
1%
#1775
14
01
b1100 "
b1100 +
0.
1)
1*
1-
0%
b1 $
b1 '
#1780
b1101 "
b1101 +
1.
1%
#1785
01
0*
b1101 "
b1101 +
1.
0-
10
0%
b10 $
b10 '
#1790
0.
b1110 "
b1110 +
11
1*
1%
#1795
0.
b1110 "
b1110 +
11
1*
1-
0%
b11 $
b11 '
#1800
b1111 "
b1111 +
1.
1%
#1805
17
14
0!
0)
11
0(
0*
b1111 "
b1111 +
1.
0-
00
13
0%
b100 $
b100 '
#1810
07
04
1!
1(
01
b0 "
b0 +
0.
1)
1*
1%
#1815
07
04
1!
1(
01
b0 "
b0 +
0.
1)
1*
1-
0%
b101 $
b101 '
#1820
b1 "
b1 +
1.
1%
#1825
01
0*
b1 "
b1 +
1.
0-
10
0%
b110 $
b110 '
#1830
0.
b10 "
b10 +
11
1*
1%
#1835
0.
b10 "
b10 +
11
1*
1-
0%
b111 $
b111 '
#1840
b11 "
b11 +
1.
1%
#1845
04
0)
11
0(
07
0*
b11 "
b11 +
1.
0-
00
03
16
0%
b1000 $
b1000 '
#1850
14
01
b100 "
b100 +
0.
1)
1*
1%
#1855
14
01
b100 "
b100 +
0.
1)
1*
1-
0%
b1001 $
b1001 '
#1860
b101 "
b101 +
1.
1%
#1865
01
0*
b101 "
b101 +
1.
0-
10
0%
b1010 $
b1010 '
#1870
0.
b110 "
b110 +
11
1*
1%
#1875
0.
b110 "
b110 +
11
1*
1-
0%
b1011 $
b1011 '
#1880
b111 "
b111 +
1.
1%
#1885
14
07
0)
11
0(
0*
b111 "
b111 +
1.
0-
00
13
0%
b1100 $
b1100 '
#1890
04
17
1(
01
b1000 "
b1000 +
0.
1)
1*
1%
#1895
04
17
1(
01
b1000 "
b1000 +
0.
1)
1*
1-
0%
b1101 $
b1101 '
#1900
b1001 "
b1001 +
1.
1%
#1905
01
0*
b1001 "
b1001 +
1.
0-
10
0%
b1110 $
b1110 '
#1910
0.
b1010 "
b1010 +
11
1*
1%
#1915
0.
b1010 "
b1010 +
11
1*
1-
0%
b1111 $
b1111 '
#1920
b1011 "
b1011 +
1.
1%
#1925
14
0!
0(
17
01
0)
0*
b1100 "
b1100 +
0.
0-
00
03
06
0,
0/
12
0%
b0 $
b0 '
b1100 #
b1100 &
#1930
b1101 "
b1101 +
1.
1%
#1935
1-
0%
b1 $
b1 '
#1940
11
b1110 "
b1110 +
0.
1*
1%
#1945
17
14
0!
b1110 "
b1110 +
11
0(
0)
0*
0-
10
0%
b10 $
b10 '
#1950
b1111 "
b1111 +
1.
1%
#1955
1-
0%
b11 $
b11 '
#1960
07
04
1!
01
1(
1)
b0 "
b0 +
0.
1*
1%
#1965
0)
b0 "
b0 +
04
0*
0-
00
13
0%
b100 $
b100 '
#1970
b1 "
b1 +
1.
1%
#1975
1-
0%
b101 $
b101 '
#1980
11
b10 "
b10 +
0.
1*
1%
#1985
11
b10 "
b10 +
04
0)
0*
0-
10
0%
b110 $
b110 '
#1990
b11 "
b11 +
1.
1%
#1995
1-
0%
b111 $
b111 '
#2000
01
14
1)
b100 "
b100 +
0.
1*
1%
#2005
0(
0)
14
b100 "
b100 +
07
0*
0-
00
03
16
0%
b1000 $
b1000 '
#2010
b101 "
b101 +
1.
1%
#2015
1-
0%
b1001 $
b1001 '
#2020
11
b110 "
b110 +
0.
1*
1%
#2025
14
07
b110 "
b110 +
11
0(
0)
0*
0-
10
0%
b1010 $
b1010 '
#2030
b111 "
b111 +
1.
1%
#2035
1-
0%
b1011 $
b1011 '
#2040
04
17
01
1(
1)
b1000 "
b1000 +
0.
1*
1%
#2045
0)
b1000 "
b1000 +
04
0*
0-
00
13
0%
b1100 $
b1100 '
#2050
b1001 "
b1001 +
1.
1%
#2055
1-
0%
b1101 $
b1101 '
#2060
11
b1010 "
b1010 +
0.
1*
1%
#2065
11
b1010 "
b1010 +
04
0)
0*
0-
10
0%
b1110 $
b1110 '
#2070
b1011 "
b1011 +
1.
1%
#2075
1-
0%
b1111 $
b1111 '
#2080
01
14
1)
b1100 "
b1100 +
0.
1*
1%
#2085
0!
1.
0(
0)
14
b1101 "
b1101 +
17
0*
0-
00
03
06
1,
0%
b0 $
b0 '
b1101 #
b1101 &
#2090
11
b1110 "
b1110 +
0.
1*
1%
#2095
11
b1110 "
b1110 +
0.
1*
1-
0%
b1 $
b1 '
#2100
b1111 "
b1111 +
1.
1%
#2105
17
14
0!
11
0(
0)
0*
b1111 "
b1111 +
1.
0-
10
0%
b10 $
b10 '
#2110
07
04
1!
01
1(
1)
b0 "
b0 +
0.
1*
1%
#2115
07
04
1!
01
1(
1)
b0 "
b0 +
0.
1*
1-
0%
b11 $
b11 '
#2120
b1 "
b1 +
1.
1%
#2125
0)
04
0*
b1 "
b1 +
1.
0-
00
13
0%
b100 $
b100 '
#2130
11
b10 "
b10 +
0.
1*
1%
#2135
11
b10 "
b10 +
0.
1*
1-
0%
b101 $
b101 '
#2140
b11 "
b11 +
1.
1%
